{"data":[{"id":251475,"common_name":"Giant taro","slug":"alocasia-macrorrhizos","scientific_name":"Alocasia macrorrhizos","year":1839,"bibliography":"R.Sweet, Hort. Brit., ed. 3: 631 (1839)","author":"(L.) G.Don","status":"accepted","rank":"species","family_common_name":null,"genus_id":4228,"image_url":"https://bs.plantnet.org/image/o/9f9f5a8217a8eb5b50aac98f793b6d9411ec1fa5","synonyms":["Arum mucronatum","Calla maxima","Alocasia cordifolia","Alocasia gigas","Caladium odoratum","Arum cordifolium","Caladium plumbeum","Colocasia mucronata","Caladium macrorrhizon","Arum peregrinum","Alocasia pallida","Calla badian","Alocasia rapiformis","Colocasia rapiformis","Philodendron punctatum","Alocasia marginata","Alocasia insignis","Alocasia harrisii-pulchrum","Arum macrorrhizon","Colocasia boryi","Alocasia grandis","Caladium indicum","Alocasia plumbea","Colocasia macrorrhizos","Arum rapiforme","Colocasia peregrina","Alocasia uhinkii","Philodendron peregrinum","Caladium metallicum"],"genus":"Alocasia","family":"Araceae","links":{"self":"/api/v1/species/alocasia-macrorrhizos","plant":"/api/v1/plants/alocasia-macrorrhizos","genus":"/api/v1/genus/alocasia"}},{"id":251292,"common_name":"Buddha's hand","slug":"alocasia-cucullata","scientific_name":"Alocasia cucullata","year":1839,"bibliography":"R.Sweet, Hort. Brit., ed. 3: 631 (1839)","author":"(Lour.) G.Don","status":"accepted","rank":"species","family_common_name":null,"genus_id":4228,"image_url":"https://bs.plantnet.org/image/o/2de2a0c0a3eac1fa4a6945ffd671b48309f9590f","synonyms":["Caladium colocasia","Colocasia rugosa","Caladium rugosum","Alocasia rugosa","Panzhuyuia omeiensis","Arum cucullatum","Colocasia cucullata","Caladium cucullatum","Colocasia cochleata"],"genus":"Alocasia","family":"Araceae","links":{"self":"/api/v1/species/alocasia-cucullata","plant":"/api/v1/plants/alocasia-cucullata","genus":"/api/v1/genus/alocasia"}},{"id":251550,"common_name":"Green-velvet alocasia","slug":"alocasia-micholitziana","scientific_name":"Alocasia micholitziana","year":1912,"bibliography":"Gard. Chron., ser. 3, 51(Suppl.): li (1912)","author":"Sander","status":"accepted","rank":"species","family_common_name":null,"genus_id":4228,"image_url":"https://bs.plantnet.org/image/o/0afd53ee4edbb7fe1248d13036a659d0f4e7f4a3","synonyms":[],"genus":"Alocasia","family":"Araceae","links":{"self":"/api/v1/species/alocasia-micholitziana","plant":"/api/v1/plants/alocasia-micholitziana","genus":"/api/v1/genus/alocasia"}},{"id":251785,"common_name":"Kris'-plant","slug":"alocasia-sanderiana","scientific_name":"Alocasia sanderiana","year":1885,"bibliography":"Gard. Chron., n.s., 24: 183 (1885)","author":"W.Bull","status":"accepted","rank":"species","family_common_name":null,"genus_id":4228,"image_url":"https://bs.plantnet.org/image/o/8fec18f0d89fc9c07f20c9f628c02702b55081bb","synonyms":["Alocasia sanderiana var. nobilis","Schizocasia sanderiana","Alocasia sanderi","Alocasia urdanetensis"],"genus":"Alocasia","family":"Araceae","links":{"self":"/api/v1/species/alocasia-sanderiana","plant":"/api/v1/plants/alocasia-sanderiana","genus":"/api/v1/genus/alocasia"}},{"id":251830,"common_name":"Alocasia quilted dreams","slug":"alocasia-sinuata","scientific_name":"Alocasia sinuata","year":1885,"bibliography":"Gard. Chron., n.s., 24: 678 (1885)","author":"N.E.Br.","status":"accepted","rank":"species","family_common_name":null,"genus_id":4228,"image_url":"https://bs.plantnet.org/image/o/94357e193a6f1480a861a372bcdb4cfaa5bf369e","synonyms":[],"genus":"Alocasia","family":"Araceae","links":{"self":"/api/v1/species/alocasia-sinuata","plant":"/api/v1/plants/alocasia-sinuata","genus":"/api/v1/genus/alocasia"}},{"id":251246,"common_name":"Cunjevoi","slug":"alocasia-brisbanensis","scientific_name":"Alocasia brisbanensis","year":1915,"bibliography":"Biblioth. Bot. 20(85): 504 (1915)","author":"(F.M.Bailey) Domin","status":"accepted","rank":"species","family_common_name":null,"genus_id":4228,"image_url":"https://bs.plantnet.org/image/o/d7ed636c6d39136ad01a5172604cbe3d18a2a856","synonyms":["Alocasia macrorrhizos var. brisbanensis"],"genus":"Alocasia","family":"Araceae","links":{"self":"/api/v1/species/alocasia-brisbanensis","plant":"/api/v1/plants/alocasia-brisbanensis","genus":"/api/v1/genus/alocasia"}},{"id":251451,"common_name":null,"slug":"alocasia-longiloba","scientific_name":"Alocasia longiloba","year":1856,"bibliography":"Fl. Ned. Ind. 3: 207 (1856)","author":"Miq.","status":"accepted","rank":"species","family_common_name":null,"genus_id":4228,"image_url":"https://bs.plantnet.org/image/o/5bde8e3f66e38b2414dfe5b6a5c0e94fc86cd0fe","synonyms":["Caladium veitchii","Alocasia lowii var. veitchii","Alocasia eminens","Alocasia korthalsii","Alocasia amabilis","Caladium lowii","Alocasia veitchii","Alocasia argyrea","Alocasia lowii var. reticulata","Alocasia lowii var. picta","Alocasia pucciana","Alocasia thibantiana","Alocasia singaporensis","Alocasia putzeysii","Alocasia cochinchensis","Alocasia watsoniana","Alocasia denudata","Alocasia intermedia","Alocasia curtisii","Alocasia gibba","Alocasia lowii","Alocasia lowii var. grandis","Alocasia lucianii","Alocasia cuspidata","Alocasia gigantea","Alocasia spectabilis","Alocasia longifolia","Alocasia denudata var. elongata","Alocasia leoniae","Alocasia veitchii var. supurba"],"genus":"Alocasia","family":"Araceae","links":{"self":"/api/v1/species/alocasia-longiloba","plant":"/api/v1/plants/alocasia-longiloba","genus":"/api/v1/genus/alocasia"}},{"id":251601,"common_name":"Asian taro","slug":"alocasia-odora","scientific_name":"Alocasia odora","year":1846,"bibliography":"Hist. Nat. Vég. 12: 46 (1846)","author":"(G.Lodd.) Spach","status":"accepted","rank":"species","family_common_name":null,"genus_id":4228,"image_url":"https://bs.plantnet.org/image/o/90354b4c154575c926897ec84805218e2aa4f364","synonyms":["Colocasia odora var. viridis","Caladium odorum","Caladium odoratissimum","Colocasia odora var. rubra","Alocasia subodorata","Colocasia odora","Arum odorum","Arum odoratum","Alocasia tonkinensis","Alocasia commutata"],"genus":"Alocasia","family":"Araceae","links":{"self":"/api/v1/species/alocasia-odora","plant":"/api/v1/plants/alocasia-odora","genus":"/api/v1/genus/alocasia"}},{"id":251186,"common_name":null,"slug":"alocasia-aequiloba","scientific_name":"Alocasia aequiloba","year":1895,"bibliography":"Bull. Misc. Inform. Kew 1895: 119 (1895)","author":"N.E.Br.","status":"accepted","rank":"species","family_common_name":null,"genus_id":4228,"image_url":"https://bs.plantnet.org/image/o/203c885c49cc0eca83a00f2a6b2c62ed948d7561","synonyms":["Alocasia peekelii","Alocasia denudatoides","Alocasia magnifica","Alocasia gjellerupii","Alocasia angustiloba","Alocasia dahlii","Alocasia schlechteri"],"genus":"Alocasia","family":"Araceae","links":{"self":"/api/v1/species/alocasia-aequiloba","plant":"/api/v1/plants/alocasia-aequiloba","genus":"/api/v1/genus/alocasia"}},{"id":251796,"common_name":null,"slug":"alocasia-scabriuscula","scientific_name":"Alocasia scabriuscula","year":1879,"bibliography":"Gard. Chron., n.s., 12: 296 (1879)","author":"N.E.Br.","status":"accepted","rank":"species","family_common_name":null,"genus_id":4228,"image_url":"https://d2seqvvyy3b8p2.cloudfront.net/9e279b33980660021a6699ac0c8661c0.jpg","synonyms":["Alocasia imperialis","Alocasia villeneuvei","Alocasia guttata var. imperialis","Alocasia guttata"],"genus":"Alocasia","family":"Araceae","links":{"self":"/api/v1/species/alocasia-scabriuscula","plant":"/api/v1/plants/alocasia-scabriuscula","genus":"/api/v1/genus/alocasia"}},{"id":251403,"common_name":null,"slug":"alocasia-heterophylla","scientific_name":"Alocasia heterophylla","year":1908,"bibliography":"Philipp. J. Sci., C 3: 220 (1908)","author":"(C.Presl) Merr.","status":"accepted","rank":"species","family_common_name":null,"genus_id":4228,"image_url":"https://bs.plantnet.org/image/o/585958b1424ab84103d359ae69b3e3c5a272716c","synonyms":["Caladium heterophyllum","Alocasia manilensis","Alocasia warburgii","Colocasia heterophylla"],"genus":"Alocasia","family":"Araceae","links":{"self":"/api/v1/species/alocasia-heterophylla","plant":"/api/v1/plants/alocasia-heterophylla","genus":"/api/v1/genus/alocasia"}},{"id":251241,"common_name":null,"slug":"alocasia-brancifolia","scientific_name":"Alocasia brancifolia","year":1990,"bibliography":"Aroids Papua New Guinea: 31 (1990)","author":"(Schott) A.Hay","status":"accepted","rank":"species","family_common_name":null,"genus_id":4228,"image_url":"https://bs.plantnet.org/image/o/081adcf0b531df4b7d42256533baf99ba5811243","synonyms":["Alocasia acuta var. angustipartita","Alocasia acuta var. tigrina","Schizocasia acuta","Schizocasia acuta var. angustipartita","Alocasia acuta","Xenophya brancifolia"],"genus":"Alocasia","family":"Araceae","links":{"self":"/api/v1/species/alocasia-brancifolia","plant":"/api/v1/plants/alocasia-brancifolia","genus":"/api/v1/genus/alocasia"}},{"id":251958,"common_name":null,"slug":"alocasia-zebrina","scientific_name":"Alocasia zebrina","year":1863,"bibliography":"Fl. Serres Jard. Paris 15: 81 (1863)","author":"Schott ex Van Houtte","status":"accepted","rank":"species","family_common_name":null,"genus_id":4228,"image_url":"https://bs.plantnet.org/image/o/919b34f0d7d334ea03192654419725be76ccdda8","synonyms":["Alocasia liervalii","Alocasia wenzelii"],"genus":"Alocasia","family":"Araceae","links":{"self":"/api/v1/species/alocasia-zebrina","plant":"/api/v1/plants/alocasia-zebrina","genus":"/api/v1/genus/alocasia"}},{"id":251297,"common_name":"Giant caladium","slug":"alocasia-cuprea","scientific_name":"Alocasia cuprea","year":1861,"bibliography":"Berliner Klin. Wochenschr. 4: 141 (1861)","author":"K.Koch","status":"accepted","rank":"species","family_common_name":null,"genus_id":4228,"image_url":"https://bs.plantnet.org/image/o/cf77bc84b848efe660d49ae7a16afa8ccd13b51c","synonyms":["Caladium cupreum","Gonatanthus cupreus","Alocasia metallica"],"genus":"Alocasia","family":"Araceae","links":{"self":"/api/v1/species/alocasia-cuprea","plant":"/api/v1/plants/alocasia-cuprea","genus":"/api/v1/genus/alocasia"}},{"id":251193,"common_name":null,"slug":"alocasia-alba","scientific_name":"Alocasia alba","year":1852,"bibliography":"Oesterr. Bot. Wochenbl. 2: 59 (1852)","author":"Schott","status":"accepted","rank":"species","family_common_name":null,"genus_id":4228,"image_url":null,"synonyms":["Alocasia crassifolia","Colocasia alba","Alocasia bantamensis"],"genus":"Alocasia","family":"Araceae","links":{"self":"/api/v1/species/alocasia-alba","plant":"/api/v1/plants/alocasia-alba","genus":"/api/v1/genus/alocasia"}},{"id":251676,"common_name":null,"slug":"alocasia-princeps","scientific_name":"Alocasia princeps","year":1888,"bibliography":"Nursery Cat. (William Bull) 1888: 7 (1888)","author":"W.Bull","status":"accepted","rank":"species","family_common_name":null,"genus_id":4228,"image_url":"https://d2seqvvyy3b8p2.cloudfront.net/b59041288962efb37f030ddd48cd3e8b.jpg","synonyms":["Alocasia porphyroneura"],"genus":"Alocasia","family":"Araceae","links":{"self":"/api/v1/species/alocasia-princeps","plant":"/api/v1/plants/alocasia-princeps","genus":"/api/v1/genus/alocasia"}},{"id":251437,"common_name":null,"slug":"alocasia-lauterbachiana","scientific_name":"Alocasia lauterbachiana","year":1990,"bibliography":"Aroids Papua New Guinea: 31 (1990)","author":"(Engl.) A.Hay","status":"accepted","rank":"species","family_common_name":null,"genus_id":4228,"image_url":"https://bs.plantnet.org/image/o/e0f8effdf5fd3153e9246329aa3adf5e669d500a","synonyms":["Schizocasia lauterbachiana","Alocasia wavriniana","Xenophya lauterbachiana"],"genus":"Alocasia","family":"Araceae","links":{"self":"/api/v1/species/alocasia-lauterbachiana","plant":"/api/v1/plants/alocasia-lauterbachiana","genus":"/api/v1/genus/alocasia"}},{"id":251503,"common_name":null,"slug":"alocasia-maquilingensis","scientific_name":"Alocasia maquilingensis","year":1918,"bibliography":"Philipp. J. Sci. 13: 3 (1918)","author":"Merr.","status":"accepted","rank":"species","family_common_name":null,"genus_id":4228,"image_url":"https://d2seqvvyy3b8p2.cloudfront.net/5c79e923c2767c43b563a7cf62b64053.jpg","synonyms":["Alocasia vulcanica"],"genus":"Alocasia","family":"Araceae","links":{"self":"/api/v1/species/alocasia-maquilingensis","plant":"/api/v1/plants/alocasia-maquilingensis","genus":"/api/v1/genus/alocasia"}},{"id":251408,"common_name":null,"slug":"alocasia-inornata","scientific_name":"Alocasia inornata","year":1915,"bibliography":"Meded. Rijks-Herb. 26: 7 (1915)","author":"Hallier f.","status":"accepted","rank":"species","family_common_name":null,"genus_id":4228,"image_url":"https://bs.plantnet.org/image/o/2294b89e01e8e0e3bca1114d5173b3b2a12b4b91","synonyms":["Alocasia nobilis"],"genus":"Alocasia","family":"Araceae","links":{"self":"/api/v1/species/alocasia-inornata","plant":"/api/v1/plants/alocasia-inornata","genus":"/api/v1/genus/alocasia"}},{"id":71365,"common_name":"Indian-turnip","slug":"arisaema-triphyllum","scientific_name":"Arisaema triphyllum","year":1832,"bibliography":"H.W.Schott \u0026 S.L.Endlicher, Melet. Bot.: 17 (1832)","author":"(L.) Schott","status":"accepted","rank":"species","family_common_name":null,"genus_id":3293,"image_url":"https://bs.plantnet.org/image/o/3553b3628cf6532601255902244900cea8550895","synonyms":["Arum triphyllum","Arum atrorubens","Arisaema quinatum var. obtusoquinatum","Arisaema atrorubens var. viride","Arum triphyllum var. viride","Arum triphyllum var. virens","Arisaema atrorubens f. viride","Arisaema triphyllum f. zebrinum","Arisaema triphyllum var. viride","Arum triphyllum var. atrorubens","Arum triphyllum var. atropurpureum","Arisaema triphyllum f. viride","Arisaema deflexum","Arum triphyllum var. zebrinum","Arisaema atrorubens f. zebrinum","Arisaema atrorubens var. zebrinum","Arum triphyllum var. pallescens","Arum vittatum","Arisaema brasilianum","Arisaema atrorubens","Alocasia triphylla","Arisaema hastatum","Arisaema atrorubens f. pallascens","Arisaema zebrinum","Arisaema triphyllum var. montanum","Alocasia atrorubens","Alocasia lobata","Arisaema triphyllum var. typicum"],"genus":"Arisaema","family":"Araceae","links":{"self":"/api/v1/species/arisaema-triphyllum","plant":"/api/v1/plants/arisaema-triphyllum","genus":"/api/v1/genus/arisaema"}}],"links":{"self":"/api/v1/plants/search?q=alocasia","first":"/api/v1/plants/search?page=1\u0026q=alocasia","next":"/api/v1/plants/search?page=2\u0026q=alocasia","last":"/api/v1/plants/search?page=7\u0026q=alocasia"},"meta":{"total":123}}